%YAML 1.1
%TAG !u! tag:unity3d.com,2011:
--- !u!1 &8198796723262696485
GameObject:
  m_ObjectHideFlags: 0
  m_CorrespondingSourceObject: {fileID: 0}
  m_PrefabInstance: {fileID: 0}
  m_PrefabAsset: {fileID: 0}
  serializedVersion: 6
  m_Component:
  - component: {fileID: 8198796723262696484}
  m_Layer: 0
  m_Name: camp
  m_TagString: Untagged
  m_Icon: {fileID: 0}
  m_NavMeshLayer: 0
  m_StaticEditorFlags: 0
  m_IsActive: 1
--- !u!4 &8198796723262696484
Transform:
  m_ObjectHideFlags: 0
  m_CorrespondingSourceObject: {fileID: 0}
  m_PrefabInstance: {fileID: 0}
  m_PrefabAsset: {fileID: 0}
  m_GameObject: {fileID: 8198796723262696485}
  m_LocalRotation: {x: -0, y: -0, z: -0, w: 1}
  m_LocalPosition: {x: 10.155, y: 1.122, z: -7.696}
  m_LocalScale: {x: 7.7272, y: 7.7272, z: 7.7272}
  m_Children:
  - {fileID: 8524543695126309854}
  - {fileID: 7605054776860846039}
  m_Father: {fileID: 0}
  m_RootOrder: 0
  m_LocalEulerAnglesHint: {x: 0, y: 0, z: 0}
--- !u!1001 &8198796722578770997
PrefabInstance:
  m_ObjectHideFlags: 0
  serializedVersion: 2
  m_Modification:
    m_TransformParent: {fileID: 8198796723262696484}
    m_Modifications:
    - target: {fileID: -8679921383154817045, guid: 10070ef69fbe6dd48b1cec90118de1cc,
        type: 3}
      propertyPath: m_LocalPosition.x
      value: 0
      objectReference: {fileID: 0}
    - target: {fileID: -8679921383154817045, guid: 10070ef69fbe6dd48b1cec90118de1cc,
        type: 3}
      propertyPath: m_LocalPosition.y
      value: 0
      objectReference: {fileID: 0}
    - target: {fileID: -8679921383154817045, guid: 10070ef69fbe6dd48b1cec90118de1cc,
        type: 3}
      propertyPath: m_LocalPosition.z
      value: 0
      objectReference: {fileID: 0}
    - target: {fileID: -8679921383154817045, guid: 10070ef69fbe6dd48b1cec90118de1cc,
        type: 3}
      propertyPath: m_LocalRotation.x
      value: -0
      objectReference: {fileID: 0}
    - target: {fileID: -8679921383154817045, guid: 10070ef69fbe6dd48b1cec90118de1cc,
        type: 3}
      propertyPath: m_LocalRotation.y
      value: -0
      objectReference: {fileID: 0}
    - target: {fileID: -8679921383154817045, guid: 10070ef69fbe6dd48b1cec90118de1cc,
        type: 3}
      propertyPath: m_LocalRotation.z
      value: -0
      objectReference: {fileID: 0}
    - target: {fileID: -8679921383154817045, guid: 10070ef69fbe6dd48b1cec90118de1cc,
        type: 3}
      propertyPath: m_LocalRotation.w
      value: 1
      objectReference: {fileID: 0}
    - target: {fileID: -8679921383154817045, guid: 10070ef69fbe6dd48b1cec90118de1cc,
        type: 3}
      propertyPath: m_RootOrder
      value: 0
      objectReference: {fileID: 0}
    - target: {fileID: -8679921383154817045, guid: 10070ef69fbe6dd48b1cec90118de1cc,
        type: 3}
      propertyPath: m_LocalEulerAnglesHint.x
      value: 0
      objectReference: {fileID: 0}
    - target: {fileID: -8679921383154817045, guid: 10070ef69fbe6dd48b1cec90118de1cc,
        type: 3}
      propertyPath: m_LocalEulerAnglesHint.y
      value: 0
      objectReference: {fileID: 0}
    - target: {fileID: -8679921383154817045, guid: 10070ef69fbe6dd48b1cec90118de1cc,
        type: 3}
      propertyPath: m_LocalEulerAnglesHint.z
      value: 0
      objectReference: {fileID: 0}
    - target: {fileID: -8679921383154817045, guid: 10070ef69fbe6dd48b1cec90118de1cc,
        type: 3}
      propertyPath: m_LocalScale.x
      value: 1
      objectReference: {fileID: 0}
    - target: {fileID: -8679921383154817045, guid: 10070ef69fbe6dd48b1cec90118de1cc,
        type: 3}
      propertyPath: m_LocalScale.y
      value: 1
      objectReference: {fileID: 0}
    - target: {fileID: -8679921383154817045, guid: 10070ef69fbe6dd48b1cec90118de1cc,
        type: 3}
      propertyPath: m_LocalScale.z
      value: 1
      objectReference: {fileID: 0}
    - target: {fileID: 919132149155446097, guid: 10070ef69fbe6dd48b1cec90118de1cc,
        type: 3}
      propertyPath: m_Name
      value: wood
      objectReference: {fileID: 0}
    m_RemovedComponents: []
  m_SourcePrefab: {fileID: 100100000, guid: 10070ef69fbe6dd48b1cec90118de1cc, type: 3}
--- !u!4 &8524543695126309854 stripped
Transform:
  m_CorrespondingSourceObject: {fileID: -8679921383154817045, guid: 10070ef69fbe6dd48b1cec90118de1cc,
    type: 3}
  m_PrefabInstance: {fileID: 8198796722578770997}
  m_PrefabAsset: {fileID: 0}
--- !u!1001 &8198796722788963730
PrefabInstance:
  m_ObjectHideFlags: 0
  serializedVersion: 2
  m_Modification:
    m_TransformParent: {fileID: 8198796723262696484}
    m_Modifications:
    - target: {fileID: 1751178050379493957, guid: 5a5e06e23f2af36439ee2da9db81cf75,
        type: 3}
      propertyPath: m_LocalPosition.x
      value: -0.0015529667
      objectReference: {fileID: 0}
    - target: {fileID: 1751178050379493957, guid: 5a5e06e23f2af36439ee2da9db81cf75,
        type: 3}
      propertyPath: m_LocalPosition.y
      value: 0.019800186
      objectReference: {fileID: 0}
    - target: {fileID: 1751178050379493957, guid: 5a5e06e23f2af36439ee2da9db81cf75,
        type: 3}
      propertyPath: m_LocalPosition.z
      value: -0.0028470643
      objectReference: {fileID: 0}
    - target: {fileID: 1751178050379493957, guid: 5a5e06e23f2af36439ee2da9db81cf75,
        type: 3}
      propertyPath: m_LocalRotation.x
      value: -0.7071068
      objectReference: {fileID: 0}
    - target: {fileID: 1751178050379493957, guid: 5a5e06e23f2af36439ee2da9db81cf75,
        type: 3}
      propertyPath: m_LocalRotation.y
      value: -0
      objectReference: {fileID: 0}
    - target: {fileID: 1751178050379493957, guid: 5a5e06e23f2af36439ee2da9db81cf75,
        type: 3}
      propertyPath: m_LocalRotation.z
      value: -0
      objectReference: {fileID: 0}
    - target: {fileID: 1751178050379493957, guid: 5a5e06e23f2af36439ee2da9db81cf75,
        type: 3}
      propertyPath: m_LocalRotation.w
      value: 0.7071068
      objectReference: {fileID: 0}
    - target: {fileID: 1751178050379493957, guid: 5a5e06e23f2af36439ee2da9db81cf75,
        type: 3}
      propertyPath: m_RootOrder
      value: 1
      objectReference: {fileID: 0}
    - target: {fileID: 1751178050379493957, guid: 5a5e06e23f2af36439ee2da9db81cf75,
        type: 3}
      propertyPath: m_LocalEulerAnglesHint.x
      value: -90
      objectReference: {fileID: 0}
    - target: {fileID: 1751178050379493957, guid: 5a5e06e23f2af36439ee2da9db81cf75,
        type: 3}
      propertyPath: m_LocalEulerAnglesHint.y
      value: 0
      objectReference: {fileID: 0}
    - target: {fileID: 1751178050379493957, guid: 5a5e06e23f2af36439ee2da9db81cf75,
        type: 3}
      propertyPath: m_LocalEulerAnglesHint.z
      value: 0
      objectReference: {fileID: 0}
    - target: {fileID: 1751178050379493957, guid: 5a5e06e23f2af36439ee2da9db81cf75,
        type: 3}
      propertyPath: m_LocalScale.x
      value: 0.5052283
      objectReference: {fileID: 0}
    - target: {fileID: 1751178050379493957, guid: 5a5e06e23f2af36439ee2da9db81cf75,
        type: 3}
      propertyPath: m_LocalScale.y
      value: 0.5052283
      objectReference: {fileID: 0}
    - target: {fileID: 1751178050379493957, guid: 5a5e06e23f2af36439ee2da9db81cf75,
        type: 3}
      propertyPath: m_LocalScale.z
      value: 0.5052283
      objectReference: {fileID: 0}
    - target: {fileID: 1751178050379494008, guid: 5a5e06e23f2af36439ee2da9db81cf75,
        type: 3}
      propertyPath: m_Radius
      value: 0.4091084
      objectReference: {fileID: 0}
    - target: {fileID: 1751178050379494008, guid: 5a5e06e23f2af36439ee2da9db81cf75,
        type: 3}
      propertyPath: m_Center.x
      value: 0.017706975
      objectReference: {fileID: 0}
    - target: {fileID: 1751178050379494008, guid: 5a5e06e23f2af36439ee2da9db81cf75,
        type: 3}
      propertyPath: m_Center.y
      value: -0.019312698
      objectReference: {fileID: 0}
    - target: {fileID: 1751178050379494008, guid: 5a5e06e23f2af36439ee2da9db81cf75,
        type: 3}
      propertyPath: m_Center.z
      value: 0.3754872
      objectReference: {fileID: 0}
    - target: {fileID: 1751178050379494008, guid: 5a5e06e23f2af36439ee2da9db81cf75,
        type: 3}
      propertyPath: m_Enabled
      value: 1
      objectReference: {fileID: 0}
    - target: {fileID: 1751178050379494010, guid: 5a5e06e23f2af36439ee2da9db81cf75,
        type: 3}
      propertyPath: m_Name
      value: fire
      objectReference: {fileID: 0}
    - target: {fileID: 1751178051578386775, guid: 5a5e06e23f2af36439ee2da9db81cf75,
        type: 3}
      propertyPath: m_Range
      value: 10
      objectReference: {fileID: 0}
    m_RemovedComponents: []
  m_SourcePrefab: {fileID: 100100000, guid: 5a5e06e23f2af36439ee2da9db81cf75, type: 3}
--- !u!4 &7605054776860846039 stripped
Transform:
  m_CorrespondingSourceObject: {fileID: 1751178050379493957, guid: 5a5e06e23f2af36439ee2da9db81cf75,
    type: 3}
  m_PrefabInstance: {fileID: 8198796722788963730}
  m_PrefabAsset: {fileID: 0}
